{
  //Unit
  "unit": {
    "gui_name": "Light Tank",
    "name": "light_tank",
    "camp": "reds",
    "weight": 2000.0,
    "move_speed": 40.0,
    "acc_speed": 10.0,
    "armor": 50,
    "max_fuel": 50.0
  },

  // Combat
  "combat": {
    "defence_rating": 3,
    "weapons": [
      {
        "type": "Gun",
        //typename: "light_tank_reds_gun",
        "name": "light_tank_reds_gun",
        "tag": "maingun",
        //caliber: 76,
        "fire_rate": 8,
        "max_rounds": 10,
        "maintance_cost": 100,
        "ammo": 10,
        "ammo_charge": 1,
        //ammotype: "76mm_gun_ammo_reds",
        "attack_delay": 0.5,
        "realm": "ground",
        "ammotype":
          {
            "type": "Shell",  // Projectile ?
            //typename: "76mm_gun_shell_reds",
            "name": "76mm_gun_shell_reds",
            "caliber": 76,
            "cost": 0,
            "move_speed": 100,
            "reliability": 0.9,
            "accuracy": 0.8,
            "weight": 9,
            "affect_radius": 1,
            "radius": 10.0,
            "locate_radius": 20.0,
            "attack_rating": 3
          },
      },
    ],
  },

  // UnitAI
  "unit_ai": {
    "moving_behavior": {
      "type": "standard",
      "target_locate_radius": 8,
      "target_pursuit_time": 10
    }
  },

  // Tank
  "tank": {},

  // Turret
  "turret_host": {
    "turrets": [
      {
        "id": 0,
        "type": "Turret",
        "typename": "light_tank_reds_turret",
        "name": "turrent",
        "gui_name":  "LT's turret",
        "reload_time": 10.0,
        "rot_speed": 35.0,
        "hosted_weapon": "light_tank_reds_gun",  // @to linkedWeapon
        //"mpturret": "pos: (0, 0)",
        "ecs_tag": "main"
      }
    ]
  },

  "view": {
    "turrets": [
      {
        "id": 0,
        "snd_fire": "fire.ogg",
        "snd_reload": "reload.ogg",
        //parentNodeName: "body",
        "node_name": "turret",
        "ecs_tag": "main"
      }
    ]
  }
}
