<?xml version="1.0" encoding="utf-8"?>
<COLLADA xmlns="http://www.collada.org/2005/11/COLLADASchema" version="1.4.1">
  <asset>
    <contributor>
      <author>Blender User</author>
      <authoring_tool>Blender 2.72.0 commit date:2014-10-21, commit time:11:38, hash:9e963ae</authoring_tool>
    </contributor>
    <created>2015-02-09T17:09:59</created>
    <modified>2015-02-09T17:09:59</modified>
    <unit name="meter" meter="1"/>
    <up_axis>Z_UP</up_axis>
  </asset>
  <library_images>
    <image id="uvturret" name="uvturret">
      <init_from>uvturret.png</init_from>
    </image>
    <image id="uvbody" name="uvbody">
      <init_from>uvbody.png</init_from>
    </image>
  </library_images>
  <library_effects>
    <effect id="mat_turret-effect">
      <profile_COMMON>
        <newparam sid="uvturret-surface">
          <surface type="2D">
            <init_from>uvturret</init_from>
          </surface>
        </newparam>
        <newparam sid="uvturret-sampler">
          <sampler2D>
            <source>uvturret-surface</source>
          </sampler2D>
        </newparam>
        <technique sid="common">
          <phong>
            <emission>
              <color sid="emission">0 0 0 1</color>
            </emission>
            <ambient>
              <color sid="ambient">0 0 0 1</color>
            </ambient>
            <diffuse>
              <texture texture="uvturret-sampler" texcoord="UVMap"/>
            </diffuse>
            <specular>
              <color sid="specular">0.5 0.5 0.5 1</color>
            </specular>
            <shininess>
              <float sid="shininess">50</float>
            </shininess>
            <index_of_refraction>
              <float sid="index_of_refraction">1</float>
            </index_of_refraction>
          </phong>
        </technique>
      </profile_COMMON>
    </effect>
    <effect id="mat_body-effect">
      <profile_COMMON>
        <newparam sid="uvbody-surface">
          <surface type="2D">
            <init_from>uvbody</init_from>
          </surface>
        </newparam>
        <newparam sid="uvbody-sampler">
          <sampler2D>
            <source>uvbody-surface</source>
          </sampler2D>
        </newparam>
        <technique sid="common">
          <phong>
            <emission>
              <color sid="emission">0 0 0 1</color>
            </emission>
            <ambient>
              <color sid="ambient">0 0 0 1</color>
            </ambient>
            <diffuse>
              <texture texture="uvbody-sampler" texcoord="UVMap"/>
            </diffuse>
            <specular>
              <color sid="specular">0.5 0.5 0.5 1</color>
            </specular>
            <shininess>
              <float sid="shininess">50</float>
            </shininess>
            <index_of_refraction>
              <float sid="index_of_refraction">1</float>
            </index_of_refraction>
          </phong>
        </technique>
      </profile_COMMON>
    </effect>
  </library_effects>
  <library_materials>
    <material id="mat_turret-material" name="mat_turret">
      <instance_effect url="#mat_turret-effect"/>
    </material>
    <material id="mat_body-material" name="mat_body">
      <instance_effect url="#mat_body-effect"/>
    </material>
  </library_materials>
  <library_geometries>
    <geometry id="turret-mesh" name="turret">
      <mesh>
        <source id="turret-mesh-positions">
          <float_array id="turret-mesh-positions-array" count="102">2.753793 -0.05047309 1.846826 2.74777 -0.06899106 1.915673 2.74336 -0.01839905 1.966072 2.744975 0.05071079 1.947625 2.750998 0.0692287 1.878778 2.755407 0.01863676 1.828378 0.6051588 -0.08420103 1.634061 0.59512 -0.1150643 1.748806 0.5877709 -0.03074437 1.832805 0.590461 0.0844388 1.80206 0.6004998 0.1153021 1.687315 0.6078487 0.03098219 1.603316 2.749384 1.18842e-4 1.897225 -0.6036556 0.7410796 1.503137 0.511637 -0.5422739 1.973375 0.09717333 0.9508712 1.503137 0.5727228 0.7463868 1.5024 -0.6967912 -0.2651712 1.973375 0.9156771 0.2741063 1.503137 0.908743 -0.2434968 1.5024 0.7088193 -0.189929 1.9728 0.6036558 -0.7410793 1.503137 0.1227991 -0.9327512 1.5024 -0.243497 -0.9087429 1.5024 -0.3052011 -0.68021 1.973375 -0.7410796 -0.6036555 1.503137 -0.9327514 -0.1227985 1.5024 -0.9087427 0.2434975 1.5024 0.09578144 -0.7275463 1.9728 -0.5116369 0.5422744 1.973375 0.02166306 0.7452278 1.973375 -0.708819 0.18993 1.9728 0.4467246 0.5821812 1.9728 0.6967908 0.2651721 1.973375</float_array>
          <technique_common>
            <accessor source="#turret-mesh-positions-array" count="34" stride="3">
              <param name="X" type="float"/>
              <param name="Y" type="float"/>
              <param name="Z" type="float"/>
            </accessor>
          </technique_common>
        </source>
        <source id="turret-mesh-normals">
          <float_array id="turret-mesh-normals-array" count="147">0.9961947 -1.91694e-6 0.08715635 0.9961943 -9.71599e-7 0.08715987 0.9961944 -9.69958e-7 0.08715987 0.9961946 1.62152e-6 0.0871573 0.9961949 6.30228e-7 0.08715361 0.9961948 7.91068e-7 0.08715367 0.5986816 -0.7591174 0.255501 4.27259e-4 -0.965331 0.2609943 0.08059936 -0.7076327 -0.7019562 0.5513474 -0.2033448 0.8090762 -0.05810719 -0.2584002 0.9642629 0.5686819 0.5556505 0.6064333 -0.03665268 0.7061983 0.7070223 0.6333201 0.759209 -0.1498458 0.04336678 0.9660329 -0.2547075 0.6806543 0.2034364 -0.7037263 0.1021149 0.2591021 -0.9604175 0.6633504 -0.5558336 -0.5009613 1.45743e-4 -3.82968e-4 1 0.9061759 0.02341723 0.422252 0.5817438 -0.7070223 0.4020814 0.4177374 -0.4432203 0.7930845 0.08471935 -0.5957823 0.7986389 0.001226246 -3.28588e-4 0.9999992 -0.001715838 4.59765e-4 0.9999984 0.8847011 -0.2475966 0.3949095 0.5831477 -0.150151 0.7983337 -0.7014069 -0.591937 0.3970153 -0.2582781 -0.5543993 0.7911313 -0.563036 -0.2195807 0.7966857 0.001082539 -0.001234412 0.9999986 -0.002809584 0.003203749 0.9999909 0.5673086 0.7226173 0.3949095 0.3616138 0.4812158 0.7985168 0.5702994 0.216834 0.7922911 0.1317789 -0.9013031 0.4126408 -0.2474746 -0.8840297 0.396527 -0.8784753 0.2689596 0.394818 -0.5781427 0.1538133 0.8012635 -0.4089785 0.4583269 0.7890561 -0.9118015 -0.1241188 0.3913694 -0.5595569 0.7280191 0.3959776 0.8758202 0.2668843 0.4020509 0.00161314 0.001521706 0.9999976 0.001485288 0.00130254 0.999998 -0.001135587 -9.95907e-4 0.9999989 -0.004882931 0.6169317 0.7869808 0.06707966 0.9141514 0.3997009 0.9197231 -0.01287984 0.3923565</float_array>
          <technique_common>
            <accessor source="#turret-mesh-normals-array" count="49" stride="3">
              <param name="X" type="float"/>
              <param name="Y" type="float"/>
              <param name="Z" type="float"/>
            </accessor>
          </technique_common>
        </source>
        <source id="turret-mesh-map">
          <float_array id="turret-mesh-map-array" count="282">0.8888411 0.7580322 0.865175 0.7816982 0.8888411 0.7816982 0.865175 0.4245554 0.995984 0.2937464 0.995984 0.4245554 0.8611589 0.8133965 0.8611589 0.7897304 0.884825 0.7897304 0.884825 0.7540161 0.8611589 0.7540161 0.8611589 0.7776822 0.8888411 0.745984 0.865175 0.745984 0.8888411 0.7223178 0.8611589 0.7419679 0.884825 0.7183018 0.8611589 0.7183018 0.8531268 0.8611589 0.5754446 0.8611589 0.5754446 0.8888411 0.8611589 0.4325875 0.8611589 0.7102696 0.8888411 0.7102696 0.8531268 0.9245554 0.8531268 0.8968732 0.5754446 0.8968732 0.9245554 0.4325875 0.8968732 0.4325875 0.8968732 0.7102696 0.8531268 0.9602696 0.8531268 0.9325875 0.5754446 0.9325875 0.9325875 0.4325875 0.9325875 0.7102696 0.9602696 0.7102696 0.5674125 0.5794607 0.2937464 0.8531268 0.5674125 0.8531268 0.5794607 0.4245554 0.8531268 0.4245554 0.8531268 0.2937464 0.2816982 0.5794607 0.2816982 0.8531268 0.008032083 0.8531268 0.2897303 0.8491107 0.2897303 0.5754446 0.5633965 0.5754446 0.5794607 0.8531268 0.8531268 0.8531268 0.8531268 0.7223178 0.995984 0.008032083 0.995984 0.2816982 0.865175 0.2816982 0.8611589 0.4205393 0.9919679 0.2897303 0.8611589 0.2897303 0.8531268 0.4366036 0.8531268 0.7102696 0.7223178 0.7102696 0.008032083 0.995984 0.2816982 0.995984 0.2816982 0.865175 0.2937464 0.995984 0.5674125 0.995984 0.5674125 0.865175 0.5633965 0.8611589 0.2897303 0.8611589 0.2897303 0.9919679 0.8531268 0.2816982 0.5794607 0.2816982 0.8531268 0.008032083 0.8611589 0.2776821 0.8611589 0.004016041 0.9919679 0.004016041 0.2816982 0.2937464 0.2816982 0.5674125 0.008032083 0.5674125 0.8491107 0.004016041 0.5754446 0.004016041 0.5754446 0.2776821 0.5794607 0.7102696 0.7102696 0.4366036 0.7102696 0.7102696 0.5674125 0.2937464 0.2937464 0.5674125 0.5674125 0.5674125 0.004016041 0.9919679 0.2776821 0.8611589 0.004016041 0.8611589 0.004016041 0.8491107 0.2776821 0.5754446 0.004016041 0.5754446 0.7183018 0.7062536 0.8491107 0.4325875 0.7183018 0.4325875 0.8491107 0.7183018 0.5754446 0.8491107 0.5754446 0.7183018 0.2897303 0.5633965 0.5633965 0.2897303 0.2897303 0.2897303 0.7062536 0.4325875 0.5754446 0.7062536 0.5754446 0.4325875 0.2937464 0.2816982 0.5674125 0.2816982 0.5674125 0.008032083 0.2897303 0.2776821 0.5633965 0.004016041 0.2897303 0.004016041 0.2776821 0.2897303 0.004016041 0.5633965 0.004016041 0.2897303 0.2816982 0.008032083 0.008032083 0.2816982 0.2816982 0.2816982 0.8491107 0.2897303 0.5754446 0.2897303 0.5754446 0.4205393 0.004016041 0.2776821 0.2776821 0.004016041 0.004016041 0.004016041 0.8531268 0.8888411 0.8531268 0.8611589 0.5754446 0.8888411 0.8888411 0.4325875 0.8611589 0.4325875 0.8888411 0.7102696 0.5754446 0.9245554 0.8531268 0.9245554 0.5754446 0.8968732 0.9245554 0.7102696 0.9245554 0.4325875 0.8968732 0.7102696 0.5754446 0.9602696 0.8531268 0.9602696 0.5754446 0.9325875 0.9602696 0.4325875 0.9325875 0.4325875 0.9602696 0.7102696</float_array>
          <technique_common>
            <accessor source="#turret-mesh-map-array" count="141" stride="2">
              <param name="S" type="float"/>
              <param name="T" type="float"/>
            </accessor>
          </technique_common>
        </source>
        <vertices id="turret-mesh-vertices">
          <input semantic="POSITION" source="#turret-mesh-positions"/>
        </vertices>
        <polylist material="mat_turret-material" count="47">
          <input semantic="VERTEX" source="#turret-mesh-vertices" offset="0"/>
          <input semantic="NORMAL" source="#turret-mesh-normals" offset="1"/>
          <input semantic="TEXCOORD" source="#turret-mesh-map" offset="2" set="0"/>
          <vcount>3 3 3 3 3 3 3 3 3 3 3 3 3 3 3 3 3 3 3 3 3 3 3 3 3 3 3 3 3 3 3 3 3 3 3 3 3 3 3 3 3 3 3 3 3 3 3 </vcount>
          <p>1 0 0 0 0 1 12 0 2 12 1 3 2 1 4 1 1 5 12 2 6 3 2 7 2 2 8 12 3 9 4 3 10 3 3 11 12 4 12 5 4 13 4 4 14 12 5 15 0 5 16 5 5 17 1 6 18 7 7 19 6 8 20 2 9 21 8 10 22 7 7 23 2 9 24 3 11 25 9 12 26 3 11 27 4 13 28 10 14 29 4 13 30 5 15 31 11 16 32 0 17 33 6 8 34 11 16 35 28 18 36 30 18 37 29 18 38 18 19 39 33 19 40 20 19 41 21 20 42 14 21 43 28 22 44 28 23 45 32 23 46 30 23 47 28 24 48 33 24 49 32 24 50 19 25 51 20 26 52 14 21 53 25 27 54 24 28 55 17 29 56 28 30 57 20 30 58 33 30 59 28 31 60 14 31 61 20 31 62 16 32 63 32 33 64 33 34 65 22 35 66 28 22 67 24 28 68 23 36 69 24 28 70 25 27 71 27 37 72 31 38 73 29 39 74 26 40 75 17 29 76 31 38 77 29 39 78 13 41 79 27 37 80 22 35 81 24 28 82 23 36 83 16 32 84 33 34 85 18 42 86 28 43 87 17 43 88 24 43 89 21 20 90 28 22 91 22 35 92 28 44 93 31 44 94 17 44 95 28 45 96 29 45 97 31 45 98 19 25 99 14 21 100 21 20 101 26 40 102 31 38 103 27 37 104 13 41 105 29 39 106 30 46 107 13 41 108 30 46 109 15 47 110 25 27 111 17 29 112 26 40 113 18 48 114 20 48 115 19 48 116 15 47 117 30 46 118 32 33 119 15 47 120 32 33 121 16 32 122 0 17 123 1 6 124 6 8 125 1 6 126 2 9 127 7 7 128 8 10 129 2 9 130 9 12 131 9 12 132 3 11 133 10 14 134 10 14 135 4 13 136 11 16 137 5 15 138 0 17 139 11 16 140</p>
        </polylist>
      </mesh>
    </geometry>
    <geometry id="body-mesh" name="body">
      <mesh>
        <source id="body-mesh-positions">
          <float_array id="body-mesh-positions-array" count="315">1.652716 -0.9967051 0.3969075 1.951676 -0.9967051 0.5962138 1.154451 -0.9967051 -0.00170505 1.154451 -1.345492 0.9948266 1.15445 -1.345492 1.393439 1.15445 -1.345492 0.9948266 -1.436532 -0.996705 0.3969075 -2.134104 -0.996705 -0.00170505 -2.014519 -0.9967049 0.3969078 -1.436532 -1.345491 0.9948266 -1.835144 -1.345491 0.9948266 -1.835144 -1.494971 0.9948266 -2.831676 -1.34549 0.5962139 -2.831677 -1.34549 1.194133 -2.831677 -1.34549 0.4965613 -1.336879 -0.9967051 0.3969075 -2.599153 -0.996705 0.3969082 -2.732023 -1.34549 0.8951736 1.752369 -0.946879 0.5962138 1.739913 -0.9967052 0.5713008 1.75237 0.8468782 0.5962138 1.154451 -1.494971 0.9948266 1.000441 -1.345492 0.9948266 -1.336879 -1.345491 0.9948266 -2.63237 -1.34549 0.906246 -2.63237 -1.345491 1.293787 1.154452 -0.9967052 0.3969075 -2.63237 -1.34549 0.3969082 -2.599153 -1.34549 0.3969082 -2.63237 -1.34549 0.4253801 -2.831677 -1.494971 0.5962139 1.652717 0.8967052 0.3969075 1.154451 0.8967052 -0.001704931 1.951676 0.8967052 0.5962141 1.575209 0.8967052 0.3969075 -2.831676 1.245492 0.5962141 -2.831676 1.245492 0.4965613 -2.831676 1.245492 1.194133 -2.831676 0.8967054 0.5962153 -2.831676 0.8967054 0.5962137 -2.831676 0.8967054 0.5962141 -2.632369 1.245492 0.4253801 -2.625206 1.245492 0.4192402 -2.632369 1.245492 0.3969082 -2.797463 1.245492 0.5668885 -2.811159 1.245492 0.5786283 -2.732022 1.245492 0.8951736 -2.632369 1.245492 1.293787 -2.632369 1.245492 0.9062461 -2.831676 1.220255 0.5962141 1.154451 0.8967051 0.3969075 1.154451 0.8967051 0.3969075 1.154451 -0.9967052 0.3969075 -2.599153 0.8967054 0.3969082 -2.614654 1.245492 0.410195 -2.61139 1.245492 0.4073978 -1.835143 1.394971 0.9948267 -1.436531 1.245492 0.9948267 -1.336878 1.245492 0.9948267 -2.01452 0.8967054 0.3969078 -2.134104 0.8967054 -0.001704931 -1.526441 0.8967053 0.3969076 1.739913 0.8967052 0.5713004 -1.835143 1.245492 0.9948267 1.054798 0.8967051 0.3969075 -1.436531 1.245492 1.293786 -2.599152 1.245492 0.3969082 -2.134104 1.394971 -0.001704931 1.553064 1.24549 1.293786 1.594429 1.245491 0.9214971 1.154452 1.245491 0.9948267 -1.336878 1.245492 1.493093 -1.336878 -1.345491 1.493093 0.9551436 -1.345492 1.493093 0.955145 1.24549 1.493093 1.154451 1.24549 1.393439 -1.436532 -1.345491 1.293786 1.553063 -1.345492 1.293786 1.752369 -0.9468793 1.194133 1.75237 0.8468775 1.194133 2.05133 0.8468782 0.7955201 2.051329 -0.9468791 0.7955201 1.951676 -0.9468793 1.09448 1.951677 0.8468775 1.09448 1.154451 -1.494971 -0.00170505 -2.134105 -1.494971 -0.00170505 1.951676 -1.494971 0.5962138 1.752369 -1.494971 0.8951734 1.752371 -0.9967053 0.8951734 -2.732023 -1.494971 0.8951736 1.594428 -1.345492 0.9214971 1.727456 -0.9967052 0.899326 1.054797 -0.9967052 0.3969075 1.154451 1.394971 -0.001704931 1.154452 1.394971 0.9948267 1.752371 1.394971 0.8951736 1.951677 1.394971 0.5962141 1.752369 0.896705 0.8951736 -2.831676 1.394971 0.5962141 -2.732021 1.394971 0.8951736 -1.436532 0.8967053 0.3969075 1.000442 1.245491 0.9948267 1.154451 1.245491 0.9948267 1.739913 0.896705 0.8972496 -1.336879 0.8967052 0.3969075</float_array>
          <technique_common>
            <accessor source="#body-mesh-positions-array" count="105" stride="3">
              <param name="X" type="float"/>
              <param name="Y" type="float"/>
              <param name="Z" type="float"/>
            </accessor>
          </technique_common>
        </source>
        <source id="body-mesh-normals">
          <float_array id="body-mesh-normals-array" count="612">1.79433e-6 1 -2.39244e-6 0 -1 -2.9906e-7 0 1 -1.80468e-7 0 0 1 0.03843289 -0.9992612 -1.83901e-7 5.9812e-7 1 -1.04671e-6 0 1 0 -5.98116e-7 -1 -1.99374e-7 0.8944292 -3.56498e-7 -0.4472096 -7.26286e-7 1 1.38849e-6 0 0 1 -3.80234e-7 -1 -6.15209e-7 -0.1104314 1.76137e-7 0.9938837 -3.58873e-7 1 2.99061e-7 0 -1 0 -0.6507916 2.08866e-6 -0.7592564 0 0 1 0 0 1 -1.79439e-6 -1 2.39251e-6 7.69015e-7 -1 -8.1174e-7 0.3713889 0.9284775 -8.88545e-7 -1 4.25331e-7 0 0 -1 0 0 1 0 0 -1 0 0 1 0 0 1 -3.07605e-7 -1 2.69916e-6 6.83565e-7 0 0 -1 0 0 -1 0 -1 0 0 1 0 0 0 1 0 1 0 -6.11714e-7 0 -1 0 -1 0 -2.44242e-7 -1 0 0.8944274 3.45107e-6 -0.4472131 0 -1 -3.63145e-7 -0.1104314 1.76137e-7 0.9938838 0 -1 -1.4953e-7 5.98122e-7 1 -7.97495e-7 0 0 1 0 1 0 -0.6507906 -3.99442e-6 -0.7592574 -1 0 7.97494e-7 -0.9284767 1.36836e-6 0.3713907 0 0 -1 -0.6 8.84262e-7 -0.8 4.3918e-7 1 1.00942e-6 0 0 1 0.4472132 -2.26336e-7 0.8944274 -0.8944267 1.64608e-7 0.4472144 4.98434e-7 0 1 -0.4472136 2.0576e-7 0.8944272 -0.4472132 1.64608e-7 -0.8944275 -1 4.1014e-7 3.41783e-7 0.2425358 0 0.9701424 0.4472136 -2.46912e-7 0.8944272 0.5546999 -2.94913e-7 -0.8320505 0.447214 -2.37767e-7 0.894427 1.79436e-6 1 2.9906e-6 0 -1 -3.98747e-7 0.9486834 -6.30475e-7 0.3162275 0 0 -1 0 -1 0 -1.4953e-7 -1 0 0.6 -5.74196e-7 -0.8 0.8320499 -3.18507e-6 0.5547008 0 -1 -4.14084e-7 4.78497e-7 -1 -2.39249e-7 -1.99374e-7 -1 -1.32916e-7 0 0 -1 -8.88638e-7 -1 -6.15209e-7 0.8944271 -2.25253e-7 -0.4472138 0.1643992 -6.29316e-7 0.9863939 0 1 2.99061e-7 -0.6507914 1.08501e-6 -0.7592566 -0.1104314 6.07576e-7 0.9938837 0.8997187 -0.4248676 0.09996914 0 1 3.17752e-7 -3.06015e-7 -1 -2.67068e-7 0 0 1 0 -1 -2.9906e-7 -0.9486826 3.02626e-6 0.3162299 -5.52113e-7 -1 0 0.164399 -5.24431e-7 0.9863939 -0.6507914 1.33458e-6 -0.7592566 0 -1 0 0.9650267 -0.2595773 0.03664654 2.40756e-6 1 0 0 0 -1 0 1 1.19624e-7 2.9906e-7 1 5.9812e-7 0.6 -5.74196e-7 -0.8000001 0.8320499 -3.18506e-6 0.5547009 0 1 0 -1.32589e-6 0 -1 -6.11713e-7 0 -1 0 -1 -2.9906e-7 0 0 -1 0 0 -1 5.01283e-7 1 1.00256e-6 5.23356e-7 1 8.97182e-7 -0.9486823 1.51314e-6 0.3162307 -1 0 0 0.8997192 0.4248666 0.09996849 0.9701426 0.2425352 -1.20888e-7 0 0 -1 0 0 -1 0 1 0 -0.6507914 8.78784e-7 -0.7592566 -0.1104314 0 0.9938837 0 0 1 0 -1 -1.4953e-7 6.76137e-7 1 -4.78497e-7 0 0 1 0 1 -7.97495e-7 1.83708e-7 1 -3.07605e-7 -0.650793 1.03801e-6 -0.7592554 0.164399 -5.24427e-7 0.9863939 0 -1 -3.69747e-7 0 0 -1 0 -1 -1.67474e-7 -1.19623e-6 1 -7.97493e-7 0.164399 -3.96468e-7 0.9863939 -0.6507915 1.24561e-6 -0.7592565 0 0 1 0.447214 -1.64536e-7 0.8944271 -0.894427 1.22595e-7 0.4472141 4.98434e-7 0 1 -0.4472136 2.0576e-7 0.8944272 -0.4472132 1.64608e-7 -0.8944275 -1 4.60093e-7 5.29107e-7 0.2425356 -1.32973e-7 0.9701425 0.4472137 -2.37663e-7 0.8944272 0.5547002 -2.21185e-7 -0.8320503 0.4472136 -2.98243e-7 0.8944272 -7.31036e-7 1 1.09656e-6 -8.3737e-7 -1 -1.07662e-6 0.9486836 -5.04158e-7 0.3162268 0 0 -1 0 -1 0 -2.24295e-7 -1 -1.49531e-7 0.5999999 -8.61294e-7 -0.8000001 0.8320517 -7.90716e-7 0.5546981 0 -1 0 0 -1 -3.98747e-7 0 -1 -3.98747e-7 0 0 -1 0 -1 0 0.8944272 -2.95364e-7 -0.4472133 0.1644004 -1.2157e-6 0.9863936 0 0 0 -0.6507923 3.63146e-6 -0.7592558 -0.110431 3.52271e-7 0.9938839 0.9337953 -0.3573283 -0.0185188 0 1 0 -3.12063e-7 -1 -2.39248e-7 0 0 1 -1.2532e-7 -1 -2.50641e-7 -0.9486826 3.0447e-6 0.3162299 -3.73826e-7 -1 -2.99061e-7 0.164399 -8.11998e-7 0.9863939 -0.6507913 1.22064e-6 -0.7592567 0 -1 0 0.894427 -0.447214 -1.78249e-7 -5.87244e-7 1 2.06627e-7 0 0 -1 0 1 -1.19624e-7 0 1 1.19624e-7 0.6 -5.74196e-7 -0.8000001 0.8320516 -7.90716e-7 0.5546981 -1.38028e-7 1 0 -6.18747e-7 0 -1 -4.88483e-7 0 -1 0 -1 -1.72186e-7 0 0 -1 0 0 -1 7.74038e-7 1 8.97181e-7 0 1 8.97181e-7 -0.9486823 1.54214e-6 0.3162307 -1 3.68074e-7 1.28827e-6 0.9232584 0.3833261 0.02559673 0.9701419 0.242538 -6.20916e-7 0 0 -1 0 0 -1 0 1 0 0 -1 0 -0.1104313 1.78651e-7 0.9938838 0 0 1 1.4166e-7 -1 -1.4953e-7 3.57018e-7 1 9.89449e-7 0 0 1 9.56992e-7 1 -4.78497e-7 1.99374e-7 1 -2.65831e-7 -0.6507915 1.61397e-6 -0.7592566 0.1643988 -9.86723e-7 0.9863941 0 -1 -3.6573e-7 0 0 -1 0 0 -1 1.70891e-7 1 -3.41783e-7 0.1643984 -6.30357e-7 0.9863941 -0.6507917 8.89718e-7 -0.7592564</float_array>
          <technique_common>
            <accessor source="#body-mesh-normals-array" count="204" stride="3">
              <param name="X" type="float"/>
              <param name="Y" type="float"/>
              <param name="Z" type="float"/>
            </accessor>
          </technique_common>
        </source>
        <source id="body-mesh-map">
          <float_array id="body-mesh-map-array" count="1224">0.9575224 0.6113685 0.9311091 0.6113685 0.9575224 0.5464937 0.5080322 0.9575224 0.5152147 0.9311091 0.5152147 0.9575224 0.9575224 0.4695706 0.9311091 0.5344455 0.9575224 0.5344455 0.572907 0.8926475 0.572907 0.9190609 0.5657244 0.9190609 0.9575224 0.1498301 0.9503398 0.1498301 0.9575224 0.08495521 0.3926475 0.9575224 0.4575224 0.9575224 0.4575224 0.9311091 0.9311091 0.4575224 0.9575224 0.3926475 0.9575224 0.4575224 0.5849552 0.9190609 0.6113685 0.9190609 0.6113685 0.8926475 0.4575224 0.8998301 0.4575224 0.8926475 0.1618782 0.8998301 0.9503398 0.01521468 0.9575224 0.01521468 0.9575224 0.008032083 0.4575224 0.9118783 0.4575224 0.9190609 0.1618782 0.9190609 0.3886315 0.927093 0.4535063 0.927093 0.3886315 0.9535064 0.9311091 0.8421378 0.9382916 0.8421378 0.9382916 0.7772629 0.3805993 0.9575224 0.3157244 0.9575224 0.3805993 0.9311091 0.9382916 0.03444546 0.9382916 0.02726286 0.9311091 0.03444546 0.5809391 0.8886315 0.5809391 0.9150448 0.6073525 0.8886315 0.9888014 0.01521468 0.995984 0.01521468 0.995984 0.008032083 0.9767532 0.01521468 0.9767532 0.008032083 0.9695706 0.01521468 0.927093 0.5424776 0.927093 0.6073525 0.9535064 0.5424776 0.8421378 0.9311091 0.8421378 0.9382916 0.7772629 0.9382916 0.9382916 0.9190609 0.9311091 0.9190609 0.9382916 0.854186 0.1578622 0.9150448 0.1578622 0.9078623 0.4535063 0.9078623 0.9727371 0.004016041 0.9655545 0.01119863 0.9655545 0.004016041 0.9888014 0.03444546 0.995984 0.03444546 0.995984 0.02726286 0.9847853 0.004016041 0.9919679 0.004016041 0.9847853 0.01119863 0.9311091 0.01521468 0.9382916 0.01521468 0.9382916 0.008032083 0.5464937 0.9190609 0.5536763 0.8926475 0.5536763 0.9190609 0.9463238 0.08093911 0.9463238 0.145814 0.9535064 0.08093911 0.1578622 0.8886315 0.1578622 0.895814 0.4535063 0.8886315 0.4575224 0.8421378 0.1618782 0.8421378 0.4575224 0.7772629 0.9767532 0.03444546 0.9695706 0.03444546 0.9767532 0.02726286 0.9727371 0.02324682 0.9655545 0.02324682 0.9655545 0.03042936 0.927093 0.9150448 0.927093 0.8501699 0.9342756 0.8501699 0.9847853 0.03042936 0.9919679 0.02324682 0.9847853 0.02324682 0.1578622 0.7732468 0.1578622 0.8381217 0.4535063 0.7732468 0.9535064 0.4655545 0.927093 0.4655545 0.927093 0.5304294 0.3117083 0.9535064 0.3765832 0.927093 0.3117083 0.927093 0.9342756 0.004016041 0.927093 0.01119863 0.927093 0.004016041 0.9463238 0.004016041 0.9535064 0.004016041 0.9463238 0.01119863 0.927093 0.8381217 0.927093 0.7732468 0.9342756 0.7732468 0.5424776 0.8886315 0.5496602 0.8886315 0.5424776 0.9150448 0.5464937 0.9575224 0.572907 0.9575224 0.572907 0.9311091 0.5617084 0.8886315 0.5617084 0.9150448 0.5688909 0.8886315 0.927093 0.02324682 0.9342756 0.02324682 0.927093 0.03042936 0.7732468 0.927093 0.7732468 0.9342756 0.8381217 0.927093 0.927093 0.4535063 0.927093 0.3886315 0.9535064 0.3886315 0.5272629 0.9575224 0.5344455 0.9311091 0.5344455 0.9575224 0.5040161 0.927093 0.5040161 0.9535064 0.5111986 0.927093 0.5232468 0.9535064 0.5304294 0.927093 0.5232468 0.927093 0.5688909 0.927093 0.5424776 0.927093 0.5424776 0.9535064 0.004016041 0.004016041 0.004016041 0.3036763 0.3036763 0.3036763 0.004016041 0.8613685 0.3036763 0.8613685 0.3036763 0.8501699 0.8998301 0.3036763 0.8998301 0.004016041 0.8886315 0.004016041 0.3117083 0.1498301 0.6113685 0.1498301 0.6113685 0.004016041 0.8998301 0.3117083 0.8886315 0.3117083 0.8886315 0.6113685 0.6113685 0.8613685 0.6113685 0.8501699 0.3117083 0.8501699 0.6194007 0.004016041 0.6194007 0.3036763 0.6882916 0.3036763 0.4655545 0.8036763 0.7652147 0.8036763 0.7652147 0.7732468 0.8036763 0.3036763 0.8036763 0.004016041 0.7732468 0.004016041 0.6113685 0.7267532 0.6113685 0.6963238 0.4655545 0.6963238 0.9382916 0.2267531 0.9382916 0.08093911 0.927093 0.08093911 0.9655545 0.0424776 0.9655545 0.07290697 0.995984 0.07290697 0.9575224 0.0424776 0.927093 0.0424776 0.927093 0.07290697 0.6113685 0.7347853 0.4655545 0.7347853 0.4655545 0.7652147 0.6882916 0.6113685 0.6882916 0.3117083 0.6194007 0.3117083 0.6113685 0.3036763 0.6113685 0.1578622 0.3117083 0.1578622 0.8421378 0.6194007 0.7732468 0.6194007 0.7732468 0.6882916 0.7732468 0.3117083 0.7732468 0.4575224 0.8421378 0.4575224 0.1498301 0.927093 0.08093911 0.927093 0.08093911 0.9575224 0.7732468 0.6963238 0.7732468 0.7652147 0.8421378 0.7652147 0.8805993 0.8805993 0.8805993 0.8501699 0.8694007 0.8501699 0.7732468 0.7732468 0.7732468 0.8421378 0.8421378 0.8421378 0.4575224 0.4655545 0.3117083 0.4655545 0.3117083 0.6113685 0.8613685 0.8805993 0.8613685 0.8501699 0.8501699 0.8501699 0.9190609 0.3036763 0.9190609 0.004016041 0.9078623 0.004016041 0.9190609 0.8501699 0.9078623 0.8501699 0.9078623 0.8805993 0.8886315 0.8501699 0.8886315 0.8805993 0.8998301 0.8805993 0.9190609 0.6194007 0.8501699 0.6194007 0.8501699 0.6882916 0.6882916 0.8501699 0.6194007 0.8501699 0.6194007 0.9190609 0.0424776 0.9655545 0.0424776 0.995984 0.07290697 0.995984 0.3036763 0.6194007 0.004016041 0.6194007 0.004016041 0.6882916 0.7652147 0.3036763 0.7652147 0.004016041 0.6963238 0.004016041 0.6113685 0.4655545 0.4655545 0.4655545 0.4655545 0.6113685 0.8805993 0.8886315 0.8694007 0.8886315 0.8694007 0.9190609 0.8613685 0.8886315 0.8501699 0.8886315 0.8501699 0.9190609 0.004016041 0.9655545 0.004016041 0.995984 0.03444546 0.995984 0.6194007 0.9382916 0.6882916 0.9382916 0.6882916 0.927093 0.9575224 0.2347853 0.927093 0.2347853 0.927093 0.3036763 0.9078623 0.8886315 0.9078623 0.9190609 0.9190609 0.9190609 0.7652147 0.927093 0.6963238 0.927093 0.6963238 0.9382916 0.8998301 0.9190609 0.8998301 0.8886315 0.8886315 0.8886315 0.7652147 0.6113685 0.7652147 0.3117083 0.6963238 0.3117083 0.6113685 0.3117083 0.3117083 0.3117083 0.3117083 0.4575224 0.8501699 0.6963238 0.8501699 0.7652147 0.9190609 0.7652147 0.7732468 0.4655545 0.7732468 0.6113685 0.8421378 0.6113685 0.2267531 0.927093 0.1578622 0.927093 0.1578622 0.9575224 0.7652147 0.8501699 0.6963238 0.8501699 0.6963238 0.9190609 0.8421378 0.004016041 0.8117084 0.004016041 0.8117084 0.3036763 0.6113685 0.6882916 0.6113685 0.6194007 0.3117083 0.6194007 0.7652147 0.6194007 0.6194007 0.6194007 0.6194007 0.7652147 0.8805993 0.004016041 0.8501699 0.004016041 0.8501699 0.3036763 0.3036763 0.8805993 0.3036763 0.8694007 0.004016041 0.8694007 0.4959839 0.9190609 0.4959839 0.8886315 0.4847853 0.8886315 0.4767532 0.8886315 0.4655545 0.8886315 0.4655545 0.9190609 0.5344455 0.8886315 0.5232468 0.8886315 0.5232468 0.9190609 0.1498301 0.6963238 0.004016041 0.6963238 0.004016041 0.8421378 0.07290697 0.927093 0.0424776 0.927093 0.0424776 0.9575224 0.9382916 0.6194007 0.927093 0.6194007 0.927093 0.6882916 0.6113685 0.8805993 0.6113685 0.8694007 0.3117083 0.8694007 0.9190609 0.6113685 0.9190609 0.3117083 0.9078623 0.3117083 0.8613685 0.927093 0.8501699 0.927093 0.8501699 0.9382916 0.004016041 0.927093 0.004016041 0.9575224 0.03444546 0.9575224 0.9190609 0.7732468 0.8501699 0.7732468 0.8501699 0.8421378 0.9575224 0.02324682 0.9463238 0.02324682 0.9463238 0.03444546 0.6113685 0.927093 0.5809391 0.927093 0.5809391 0.9575224 0.4575224 0.7652147 0.4575224 0.6963238 0.1578622 0.6963238 0.8501699 0.3117083 0.8501699 0.6113685 0.8805993 0.6113685 0.5152147 0.8886315 0.5040161 0.8886315 0.5040161 0.9190609 0.1498301 0.8886315 0.004016041 0.8886315 0.004016041 0.9190609 0.7732468 0.8501699 0.7732468 0.9190609 0.8421378 0.9190609 0.9382916 0.6963238 0.927093 0.6963238 0.927093 0.7652147 0.4959839 0.927093 0.4847853 0.927093 0.4847853 0.9575224 0.3036763 0.3117083 0.004016041 0.3117083 0.004016041 0.6113685 0.7652147 0.8117084 0.4655545 0.8117084 0.4655545 0.8421378 0.9575224 0.3117083 0.927093 0.3117083 0.927093 0.3805993 0.4767532 0.9575224 0.4767532 0.927093 0.4655545 0.927093 0.3036763 0.927093 0.2347853 0.927093 0.2347853 0.9575224 0.3036763 0.004016041 0.004016041 0.004016041 0.3036763 0.3036763 0.004016041 0.8501699 0.004016041 0.8613685 0.3036763 0.8501699 0.8886315 0.3036763 0.8998301 0.3036763 0.8886315 0.004016041 0.3117083 0.004016041 0.3117083 0.1498301 0.6113685 0.004016041 0.8998301 0.6113685 0.8998301 0.3117083 0.8886315 0.6113685 0.3117083 0.8613685 0.6113685 0.8613685 0.3117083 0.8501699 0.6882916 0.004016041 0.6194007 0.004016041 0.6882916 0.3036763 0.4655545 0.7732468 0.4655545 0.8036763 0.7652147 0.7732468 0.7732468 0.3036763 0.8036763 0.3036763 0.7732468 0.004016041 0.4655545 0.7267532 0.6113685 0.7267532 0.4655545 0.6963238 0.927093 0.2267531 0.9382916 0.2267531 0.927093 0.08093911 0.995984 0.0424776 0.9655545 0.0424776 0.995984 0.07290697 0.9575224 0.07290697 0.9575224 0.0424776 0.927093 0.07290697 0.6113685 0.7652147 0.6113685 0.7347853 0.4655545 0.7652147 0.6194007 0.6113685 0.6882916 0.6113685 0.6194007 0.3117083 0.3117083 0.3036763 0.6113685 0.3036763 0.3117083 0.1578622 0.8421378 0.6882916 0.8421378 0.6194007 0.7732468 0.6882916 0.8421378 0.3117083 0.7732468 0.3117083 0.8421378 0.4575224 0.1498301 0.9575224 0.1498301 0.927093 0.08093911 0.9575224 0.8421378 0.6963238 0.7732468 0.6963238 0.8421378 0.7652147 0.8694007 0.8805993 0.8805993 0.8805993 0.8694007 0.8501699 0.8421378 0.7732468 0.7732468 0.7732468 0.8421378 0.8421378 0.4575224 0.6113685 0.4575224 0.4655545 0.3117083 0.6113685 0.8501699 0.8805993 0.8613685 0.8805993 0.8501699 0.8501699 0.9078623 0.3036763 0.9190609 0.3036763 0.9078623 0.004016041 0.9190609 0.8805993 0.9190609 0.8501699 0.9078623 0.8805993 0.8998301 0.8501699 0.8886315 0.8501699 0.8998301 0.8805993 0.9190609 0.6882916 0.9190609 0.6194007 0.8501699 0.6882916 0.6882916 0.9190609 0.6882916 0.8501699 0.6194007 0.9190609 0.07290697 0.9655545 0.0424776 0.9655545 0.07290697 0.995984 0.3036763 0.6882916 0.3036763 0.6194007 0.004016041 0.6882916 0.6963238 0.3036763 0.7652147 0.3036763 0.6963238 0.004016041 0.6113685 0.6113685 0.6113685 0.4655545 0.4655545 0.6113685 0.8805993 0.9190609 0.8805993 0.8886315 0.8694007 0.9190609 0.8613685 0.9190609 0.8613685 0.8886315 0.8501699 0.9190609 0.03444546 0.9655545 0.004016041 0.9655545 0.03444546 0.995984 0.6194007 0.927093 0.6194007 0.9382916 0.6882916 0.927093 0.9575224 0.3036763 0.9575224 0.2347853 0.927093 0.3036763 0.9190609 0.8886315 0.9078623 0.8886315 0.9190609 0.9190609 0.7652147 0.9382916 0.7652147 0.927093 0.6963238 0.9382916 0.8886315 0.9190609 0.8998301 0.9190609 0.8886315 0.8886315 0.6963238 0.6113685 0.7652147 0.6113685 0.6963238 0.3117083 0.6113685 0.4575224 0.6113685 0.3117083 0.3117083 0.4575224 0.9190609 0.6963238 0.8501699 0.6963238 0.9190609 0.7652147 0.8421378 0.4655545 0.7732468 0.4655545 0.8421378 0.6113685 0.2267531 0.9575224 0.2267531 0.927093 0.1578622 0.9575224 0.7652147 0.9190609 0.7652147 0.8501699 0.6963238 0.9190609 0.8421378 0.3036763 0.8421378 0.004016041 0.8117084 0.3036763 0.3117083 0.6882916 0.6113685 0.6882916 0.3117083 0.6194007 0.7652147 0.7652147 0.7652147 0.6194007 0.6194007 0.7652147 0.8805993 0.3036763 0.8805993 0.004016041 0.8501699 0.3036763 0.004016041 0.8805993 0.3036763 0.8805993 0.004016041 0.8694007 0.4847853 0.9190609 0.4959839 0.9190609 0.4847853 0.8886315 0.4767532 0.9190609 0.4767532 0.8886315 0.4655545 0.9190609 0.5344455 0.9190609 0.5344455 0.8886315 0.5232468 0.9190609 0.1498301 0.8421378 0.1498301 0.6963238 0.004016041 0.8421378 0.07290697 0.9575224 0.07290697 0.927093 0.0424776 0.9575224 0.9382916 0.6882916 0.9382916 0.6194007 0.927093 0.6882916 0.3117083 0.8805993 0.6113685 0.8805993 0.3117083 0.8694007 0.9078623 0.6113685 0.9190609 0.6113685 0.9078623 0.3117083 0.8613685 0.9382916 0.8613685 0.927093 0.8501699 0.9382916 0.03444546 0.927093 0.004016041 0.927093 0.03444546 0.9575224 0.9190609 0.8421378 0.9190609 0.7732468 0.8501699 0.8421378 0.9575224 0.03444546 0.9575224 0.02324682 0.9463238 0.03444546 0.6113685 0.9575224 0.6113685 0.927093 0.5809391 0.9575224 0.1578622 0.7652147 0.4575224 0.7652147 0.1578622 0.6963238 0.8805993 0.3117083 0.8501699 0.3117083 0.8805993 0.6113685 0.5152147 0.9190609 0.5152147 0.8886315 0.5040161 0.9190609 0.1498301 0.9190609 0.1498301 0.8886315 0.004016041 0.9190609 0.8421378 0.8501699 0.7732468 0.8501699 0.8421378 0.9190609 0.9382916 0.7652147 0.9382916 0.6963238 0.927093 0.7652147 0.4959839 0.9575224 0.4959839 0.927093 0.4847853 0.9575224 0.3036763 0.6113685 0.3036763 0.3117083 0.004016041 0.6113685 0.7652147 0.8421378 0.7652147 0.8117084 0.4655545 0.8421378 0.9575224 0.3805993 0.9575224 0.3117083 0.927093 0.3805993 0.4655545 0.9575224 0.4767532 0.9575224 0.4655545 0.927093 0.3036763 0.9575224 0.3036763 0.927093 0.2347853 0.9575224</float_array>
          <technique_common>
            <accessor source="#body-mesh-map-array" count="612" stride="2">
              <param name="S" type="float"/>
              <param name="T" type="float"/>
            </accessor>
          </technique_common>
        </source>
        <vertices id="body-mesh-vertices">
          <input semantic="POSITION" source="#body-mesh-positions"/>
        </vertices>
        <polylist material="mat_body-material" count="204">
          <input semantic="VERTEX" source="#body-mesh-vertices" offset="0"/>
          <input semantic="NORMAL" source="#body-mesh-normals" offset="1"/>
          <input semantic="TEXCOORD" source="#body-mesh-map" offset="2" set="0"/>
          <vcount>3 3 3 3 3 3 3 3 3 3 3 3 3 3 3 3 3 3 3 3 3 3 3 3 3 3 3 3 3 3 3 3 3 3 3 3 3 3 3 3 3 3 3 3 3 3 3 3 3 3 3 3 3 3 3 3 3 3 3 3 3 3 3 3 3 3 3 3 3 3 3 3 3 3 3 3 3 3 3 3 3 3 3 3 3 3 3 3 3 3 3 3 3 3 3 3 3 3 3 3 3 3 3 3 3 3 3 3 3 3 3 3 3 3 3 3 3 3 3 3 3 3 3 3 3 3 3 3 3 3 3 3 3 3 3 3 3 3 3 3 3 3 3 3 3 3 3 3 3 3 3 3 3 3 3 3 3 3 3 3 3 3 3 3 3 3 3 3 3 3 3 3 3 3 3 3 3 3 3 3 3 3 3 3 3 3 3 3 3 3 3 3 3 3 3 3 3 3 3 3 3 3 3 3 </vcount>
          <p>0 0 0 1 0 1 2 0 2 3 1 3 4 1 4 5 1 5 6 2 6 7 2 7 8 2 8 9 3 9 10 3 10 11 3 11 12 4 12 13 4 13 14 4 14 7 5 15 6 5 16 15 5 17 7 6 18 16 6 19 8 6 20 12 7 21 17 7 22 13 7 23 18 8 24 19 8 25 20 8 26 0 9 27 19 9 28 1 9 29 21 10 30 22 10 31 23 10 32 24 11 33 10 11 34 25 11 35 11 12 36 10 12 37 24 12 38 26 13 39 0 13 40 2 13 41 27 14 42 28 14 43 29 14 44 12 15 45 29 15 46 30 15 47 3 16 48 5 16 49 21 16 50 5 17 51 22 17 52 21 17 53 31 18 54 32 18 55 33 18 56 31 19 57 34 19 58 32 19 59 35 20 60 36 20 61 37 20 62 38 21 63 39 21 64 14 21 65 39 22 66 38 22 67 40 22 68 41 23 69 42 23 70 43 23 71 44 24 72 42 24 73 45 24 74 44 25 75 41 25 76 42 25 77 46 26 78 47 26 79 48 26 80 49 27 81 37 27 82 36 27 83 50 28 84 51 28 85 52 28 86 53 29 87 16 29 88 43 29 89 42 30 90 54 30 91 41 30 92 42 31 93 54 31 94 55 31 95 56 32 96 57 32 97 58 32 98 36 33 99 35 33 100 44 33 101 53 34 102 59 34 103 16 34 104 60 35 105 59 35 106 53 35 107 60 36 108 61 36 109 59 36 110 20 37 111 31 37 112 62 37 113 62 38 114 31 38 115 33 38 116 48 39 117 63 39 118 56 39 119 50 40 120 64 40 121 32 40 122 65 41 123 57 41 124 63 41 125 63 42 126 57 42 127 56 42 128 43 43 129 42 43 130 66 43 131 66 44 132 42 44 133 67 44 134 37 45 135 49 45 136 38 45 137 38 46 138 49 46 139 40 46 140 66 47 141 53 47 142 43 47 143 49 48 144 39 48 145 40 48 146 68 49 147 69 49 148 70 49 149 72 50 150 73 50 151 74 50 152 74 51 153 73 51 154 4 51 155 72 52 156 71 52 157 65 52 158 76 53 159 65 53 160 47 53 161 47 54 162 37 54 163 13 54 164 27 55 165 14 55 166 36 55 167 38 56 168 14 56 169 13 56 170 75 57 171 4 57 172 77 57 173 68 58 174 77 58 175 78 58 176 20 59 177 80 59 178 81 59 179 79 60 180 78 60 181 82 60 182 79 61 183 83 61 184 80 61 185 78 62 186 18 62 187 81 62 188 83 63 189 82 63 190 81 63 191 7 64 192 2 64 193 84 64 194 84 65 195 21 65 196 11 65 197 21 66 198 84 66 199 86 66 200 2 67 201 1 67 202 86 67 203 88 68 204 87 68 205 86 68 206 11 69 207 89 69 208 30 69 209 23 70 210 72 70 211 76 70 212 76 71 213 25 71 214 10 71 215 16 72 216 28 72 217 27 72 218 24 73 219 25 73 220 13 73 221 0 74 222 31 74 223 20 74 224 90 75 225 87 75 226 88 75 227 26 76 228 2 76 229 92 76 230 28 77 231 85 77 232 30 77 233 89 78 234 11 78 235 24 78 236 78 79 237 77 79 238 90 79 239 15 80 240 92 80 241 2 80 242 23 81 243 22 81 244 73 81 245 23 82 246 9 82 247 11 82 248 22 83 249 5 83 250 4 83 251 12 84 252 30 84 253 89 84 254 3 85 255 90 85 256 77 85 257 90 86 258 3 86 259 21 86 260 28 87 261 16 87 262 7 87 263 29 88 264 12 88 265 14 88 266 91 89 267 19 89 268 18 89 269 19 90 270 91 90 271 88 90 272 67 91 273 93 91 274 32 91 275 56 92 276 94 92 277 93 92 278 94 93 279 95 93 280 96 93 281 93 94 282 96 94 283 33 94 284 95 95 285 97 95 286 33 95 287 56 96 288 67 96 289 98 96 290 61 97 291 100 97 292 6 97 293 8 98 294 16 98 295 59 98 296 100 99 297 61 99 298 60 99 299 0 100 300 26 100 301 34 100 302 26 101 303 52 101 304 51 101 305 101 102 306 74 102 307 75 102 308 75 103 309 68 103 310 70 103 311 98 104 312 35 104 313 46 104 314 39 105 315 49 105 316 36 105 317 69 106 318 68 106 319 79 106 320 103 107 321 79 107 322 20 107 323 52 108 324 92 108 325 64 108 326 104 109 327 15 109 328 6 109 329 41 110 330 43 110 331 36 110 332 44 111 333 67 111 334 42 111 335 48 112 336 56 112 337 99 112 338 94 113 339 101 113 340 102 113 341 51 114 342 50 114 343 32 114 344 58 115 345 71 115 346 74 115 347 58 116 348 101 116 349 94 116 350 58 117 351 57 117 352 65 117 353 63 118 354 48 118 355 47 118 356 44 119 357 35 119 358 98 119 359 94 120 360 70 120 361 69 120 362 62 121 363 33 121 364 97 121 365 104 122 366 64 122 367 92 122 368 100 123 369 32 123 370 64 123 371 46 124 372 35 124 373 37 124 374 69 125 375 103 125 376 97 125 377 66 126 378 67 126 379 60 126 380 71 127 381 72 127 382 74 127 383 75 128 384 74 128 385 4 128 386 76 129 387 72 129 388 65 129 389 25 130 390 76 130 391 47 130 392 25 131 393 47 131 394 13 131 395 43 132 396 27 132 397 36 132 398 37 133 399 38 133 400 13 133 401 68 134 402 75 134 403 77 134 404 79 135 405 68 135 406 78 135 407 18 136 408 20 136 409 81 136 410 83 137 411 79 137 412 82 137 413 20 138 414 79 138 415 80 138 416 82 139 417 78 139 418 81 139 419 80 140 420 83 140 421 81 140 422 85 141 423 7 141 424 84 141 425 85 142 426 84 142 427 11 142 428 87 143 429 21 143 430 86 143 431 84 144 432 2 144 433 86 144 434 1 145 435 88 145 436 86 145 437 85 146 438 11 146 439 30 146 440 9 147 441 23 147 442 76 147 443 9 148 444 76 148 445 10 148 446 43 149 447 16 149 448 27 149 449 17 150 450 24 150 451 13 150 452 19 151 453 0 151 454 20 151 455 91 152 456 90 152 457 88 152 458 52 153 459 26 153 460 92 153 461 29 154 462 28 154 463 30 154 464 17 155 465 89 155 466 24 155 467 91 156 468 78 156 469 90 156 470 7 157 471 15 157 472 2 157 473 72 158 474 23 158 475 73 158 476 21 159 477 23 159 478 11 159 479 73 160 480 22 160 481 4 160 482 17 161 483 12 161 484 89 161 485 4 162 486 3 162 487 77 162 488 87 163 489 90 163 490 21 163 491 85 164 492 28 164 493 7 164 494 27 165 495 29 165 496 14 165 497 78 166 498 91 166 499 18 166 500 1 167 501 19 167 502 88 167 503 60 168 504 67 168 505 32 168 506 67 169 507 56 169 508 93 169 509 93 170 510 94 170 511 96 170 512 32 171 513 93 171 514 33 171 515 96 172 516 95 172 517 33 172 518 99 173 519 56 173 520 98 173 521 8 174 522 61 174 523 6 174 524 61 175 525 8 175 526 59 175 527 32 176 528 100 176 529 60 176 530 31 177 531 0 177 532 34 177 533 34 178 534 26 178 535 51 178 536 102 179 537 101 179 538 75 179 539 102 180 540 75 180 541 70 180 542 99 181 543 98 181 544 46 181 545 14 182 546 39 182 547 36 182 548 103 183 549 69 183 550 79 183 551 62 184 552 103 184 553 20 184 554 50 185 555 52 185 556 64 185 557 100 186 558 104 186 559 6 186 560 44 187 561 41 187 562 36 187 563 41 188 564 44 188 565 42 188 566 46 189 567 48 189 568 99 189 569 70 190 570 94 190 571 102 190 572 34 191 573 51 191 574 32 191 575 101 192 576 58 192 577 74 192 578 56 193 579 58 193 580 94 193 581 71 194 582 58 194 583 65 194 584 65 195 585 63 195 586 47 195 587 67 196 588 44 196 589 98 196 590 95 197 591 94 197 592 69 197 593 103 198 594 62 198 595 97 198 596 15 199 597 104 199 598 92 199 599 104 200 600 100 200 601 64 200 602 47 201 603 46 201 604 37 201 605 95 202 606 69 202 607 97 202 608 53 203 609 66 203 610 60 203 611</p>
        </polylist>
      </mesh>
    </geometry>
  </library_geometries>
  <library_controllers/>
  <library_visual_scenes>
    <visual_scene id="bake" name="bake">
      <node id="body" name="body" type="NODE">
        <matrix sid="transform">1 0 0 0 0 1 0 0 0 0 1 0 0 0 0 1</matrix>
        <instance_geometry url="#body-mesh">
          <bind_material>
            <technique_common>
              <instance_material symbol="mat_body-material" target="#mat_body-material">
                <bind_vertex_input semantic="UVMap" input_semantic="TEXCOORD" input_set="0"/>
              </instance_material>
            </technique_common>
          </bind_material>
        </instance_geometry>
        <node id="turret" name="turret" type="NODE">
          <matrix sid="transform">1 0 0 0 0 1 0 0 0 0 1 0 0 0 0 1</matrix>
          <instance_geometry url="#turret-mesh">
            <bind_material>
              <technique_common>
                <instance_material symbol="mat_turret-material" target="#mat_turret-material">
                  <bind_vertex_input semantic="UVMap" input_semantic="TEXCOORD" input_set="0"/>
                </instance_material>
              </technique_common>
            </bind_material>
          </instance_geometry>
          <node id="turret_firepoint" name="turret_firepoint" type="NODE">
            <matrix sid="transform">0.2305312 0 0 2.857738 0 0.2305312 0 0 0 0 0.2305312 1.907672 0 0 0 1</matrix>
          </node>
        </node>
      </node>
    </visual_scene>
  </library_visual_scenes>
  <scene>
    <instance_visual_scene url="#bake"/>
  </scene>
</COLLADA>