{
   "building": {
      "area_x": 4,
      "area_y": 4,
      "camp": "reds",
      "dim_x": 3,
      "dim_y": 3,
      "gui_name": "Headquarters",
      "name": "hq"
   },
   "combat": { },
   "view": { }
}
